…
-   engineer features based on episode scripts
-   train a model
-   perform cross validation
-   make predictions

Note: The episodes listed in `theoffice` don’t match the ones listed in
the data we used in the [cross validation
lesson](https://ids-s1-20.github.io/slides/week-10/w10-d02-cross-validation/w10-d02-cross-validation.html).

``` r
theoffice %>%
  distinct(season, episode)
```

    ## # A tibble: 186 × 2
    ##    season episode
    ##     <int>   <int>
    ##  1      1       1
    ##  2      1       2
    ##  3      1       3
    ##  4      1       4
    ##  5      1       5
    ##  6      1       6
    ##  7      2       1
    ##  8      2       2
    ##  9      2       3
    ## 10      2       4
    ## # … with 176 more rows
…
``` r
office_lines <- theoffice %>% 
  group_by(season, episode) %>%
  mutate(n_lines = n(), 
         lines_jim = sum(character == "Jim")/n_lines, 
         lines_pan = sum(character == "Pan")/n_lines, 
         lines_mike = sum(character == "Michael")/n_lines, 
         lines_dwight = sum(character == "Dwight")/n_lines) %>%
  ungroup() %>% 
  select(season, episode, episode_name, contains("lines_")) %>%
  distinct(season, episode, episode_name, .keep_all = TRUE) %>% 
  print()
```

    ## # A tibble: 186 × 7
    ##    season episode episode_name      lines_jim lines_pan lines_mike lines_dwight
    ##     <int>   <int> <chr>                 <dbl>     <dbl>      <dbl>        <dbl>
    ##  1      1       1 Pilot                0.157          0      0.354       0.127 
    ##  2      1       2 Diversity Day        0.123          0      0.369       0.0837
    ##  3      1       3 Health Care          0.172          0      0.230       0.254 
    ##  4      1       4 The Alliance         0.202          0      0.280       0.193 
    ##  5      1       5 Basketball           0.0913         0      0.452       0.109 
    ##  6      1       6 Hot Girl             0.159          0      0.306       0.0809
    ##  7      2       1 The Dundies          0.125          0      0.375       0.125 
    ##  8      2       2 Sexual Harassment    0.0565         0      0.353       0.0389
    ##  9      2       3 Office Olympics      0.196          0      0.295       0.196 
    ## 10      2       4 The Fire             0.160          0      0.216       0.204 
    ## # … with 176 more rows
…
